bigram,n
держать курсе,2
нашего бизнеса,2
нашему сервису,2
агентствам скажем,1
айти продукты,1
айти рекрутер,1
айти эйчар,1
анализировать различных,1
аналитические сервисы,1
аналитические сре,1
аналитический подход,1
аналитическом срезе,1
банкам продуктов,1
банков ритейлеров,1
биг дата,1
бизнес занимаемся,1
бизнеса биг,1
бизнеса поскольку,1
блок внутренний,1
большая нашего,1
вакансию фрондент,1
веб интерфейса,1
веб интерфейсов,1
вебинтерфейс общения,1
великолепно классно,1
вероятности привет,1
виде фнс,1
видимости блок,1
видно продает,1
внутри департамента,1
внутри компании,1
возможность михаилу,1
впечатления текущая,1
вскоре принимать,1
выбивает чек,1
выстраивали банкам,1
главного веб,1
давай дала,1
давай миша,1
дала извини,1
далее огромное,1
далее первую,1
дам возможность,1
дата поскольку,1
деле максим,1
департамента айти,1
держать держать,1
директором займёт,1
дня целом,1
добавить давай,1
добавить комментарий,1
добрый максим,1
документооборот маркировка,1
долей вероятности,1
достаточно электронный,1
емаил долей,1
задержаться максим,1
займёт пару,1
закончила добавить,1
занимаемся максим,1
занимаемся словах,1
занимается развитием,1
запланировал вскоре,1
зимние шапки,1
знаешь покупал,1
знакомьтесь михаил,1
знания привёл,1
знаю продаже,1
извини прощаемся,1
изменился компаниях,1
изменяет ситуацию,1
интернете приходили,1
интернетмагазине далее,1
интерфейса веб,1
интерфейсов наших,1
информацию храним,1
информацию чеке,1
кабинет нашем,1
какие впечатления,1
какие этап,1
каким ценам,1
каких торговых,1
какое далее,1
кампании выстраивали,1
кандидат миша,1
кандидатов вакансию,1
касс любом,1
касса выбивает,1
касса стране,1
кассы личный,1
классно слушай,1
клиентами команда,1
клиентов мелких,1
клиентов милиона,1
клиенты подключают,1
клиенты ритейлеры,1
количество клиентов,1
команда занимается,1
команда мишина,1
комментарий подбираю,1
компании повторяться,1
компании согласования,1
компании третья,1
компаниях айти,1
компаниях какие,1
конца недели,1
крупных торговых,1
курсе изменяет,1
курсе конца,1
ладно остаёмся,1
личный кабинет,1
лужники молока,1
любом магазине,1
любых касс,1
любят обсуждать,1
магазине интернетмагазине,1
магазинов некоторые,1
максим добрый,1
максим пару,1
максим скажи,1
максим сможете,1
максим фидбек,1
максим хотела,1
максима максиму,1
максиму словах,1
маркировка товаров,1
марок средней,1
мелких ретейлеров,1
метро лужники,1
милиона онлайнкасс,1
милиона чеков,1
минут задержаться,1
михаил тимлид,1
михаилу расшарил,1
миш давай,1
миша максим,1
миша миш,1
миша расшарит,1
миша резюме,1
миши паралельно,1
мишина команда,1
можем различные,1
молока каких,1
наверное закончила,1
наверное изменился,1
написал нравишься,1
направлена ретейлер,1
напрямую принимает,1
начали нашим,1
нашего главного,1
нашей компании,1
нашей фронтенд,1
нашем сервисе,1
нашим знаешь,1
нашими клиентами,1
наших продуктов,1
недели получается,1
некоторые присылают,1
новогодних товаров,1
новости слышишь,1
новостях любят,1
нравишься позволишь,1
нужном виде,1
область видимости,1
обрабатываем милиона,1
обрабатывает хранит,1
обсуждать привет,1
общем слушаешь,1
общения нашими,1
огромное количество,1
одна большая,1
ок супер,1
онлайн информацию,1
онлайнкасс подключено,1
основа нашего,1
остаёмся связи,1
отлично оферу,1
отправляет основа,1
отправляют онлайн,1
оферу держать,1
очередь ритейлерам,1
паралельно написал,1
пару дня,1
пару минут,1
первую очередь,1
перестали покупать,1
повторюсь начали,1
повторяться поподробнее,1
подбираю кандидатов,1
подключают кассы,1
подключаются касса,1
подключена нашему,1
подключено нашему,1
подробнее рассказать,1
подход занимаемся,1
позволишь добавить,1
покупал интернете,1
покупать утренних,1
получается информацию,1
получается собеседования,1
понятно примеру,1
поподробнее рассказать,1
порядка семиста,1
поскольку порядка,1
поскольку принимаем,1
предлагаем айти,1
привет аналитический,1
привет миша,1
привет нашей,1
привёл великолепно,1
примеру метро,1
принимаем обрабатываем,1
принимает обрабатывает,1
принимать решение,1
присылают емаил,1
приходили чеки,1
прицельно рекламные,1
проведёт собеседование,1
продавать ритейлерам,1
продает каким,1
продается какое,1
продается цене,1
продаже новогодних,1
продуктов наверное,1
продуктов срезе,1
продукты достаточно,1
прощаемся максим,1
развитием нашего,1
различные анализировать,1
различных срезах,1
разных компаниях,1
разработки проведёт,1
разработчика разных,1
рассказала компании,1
рассказать бизнес,1
рассказать общем,1
расшарил экран,1
расшарит экран,1
резюме максима,1
рекламные кампании,1
рекламным агентствам,1
рекрутер теоретические,1
ретейлер одна,1
ретейлеров крупных,1
решение ладно,1
ритейлерам рекламным,1
ритейлерам сравнение,1
ритейлеров направлена,1
ритейлеров углубиться,1
ритейлеры клиенты,1
ритейлеры подключаются,1
рынком продается,1
связи держать,1
сегодняшний кандидат,1
семиста клиентов,1
сервисе скажем,1
сервису любых,1
сервису ритейлеры,1
сервисы продавать,1
сетей предлагаем,1
ситуацию область,1
ситуация наверное,1
скажем вебинтерфейс,1
скажем прицельно,1
скажи повторюсь,1
словах клиенты,1
словах рассказала,1
слушаешь новости,1
слушай внутри,1
слышишь знаю,1
сможете экран,1
собеседование какие,1
собеседование сегодняшний,1
собеседования запланировал,1
согласования внутри,1
сравнение рынком,1
сре аналитические,1
средней цене,1
срезах аналитические,1
срезе банков,1
срезе понятно,1
стране подключена,1
супер отлично,1
текущая ситуация,1
тему подробнее,1
теоретические знания,1
тимлид нашей,1
товаров увеличились,1
товаров целом,1
торговых марок,1
торговых сетей,1
третья касса,1
увеличились зимние,1
углубиться тему,1
утренних новостях,1
фидбек миши,1
фидбек ок,1
фнс напрямую,1
фнс отправляет,1
фрондент разработчика,1
фронтенд разработки,1
хотела хотела,1
хотела четвёртое,1
храним можем,1
хранит нужном,1
целом видно,1
целом ритейлеров,1
целом фидбек,1
ценам аналитическом,1
цене продается,1
цене целом,1
чек отправляют,1
чеке фнс,1
чеки магазинов,1
чеков получается,1
четвёртое собеседование,1
шапки перестали,1
эйчар директором,1
экран дам,1
экран знакомьтесь,1
экран миша,1
электронный документооборот,1
этап этапы,1
этапы деле,1
