word,n
можем,25
функции,23
соответственно,21
знаешь,20
какие,20
принципе,19
правильно,18
контекст,15
нужен,14
реакт,14
функция,14
использовать,13
наверное,13
классно,12
ладно,12
помощью,12
стейт,12
давай,10
какое,10
либо,10
например,10
собственно,10
внутри,9
говоря,9
значение,9
понятно,9
фанкшен,9
юз,9
компонентов,8
молодец,8
немножко,8
понимаешь,8
редакс,8
скорее,8
типа,8
грубо,7
данные,7
деле,7
компонент,7
максим,7
написать,7
объект,7
ой,7
вар,6
знаю,6
каких,6
код,6
компании,6
общем,6
понял,6
расскажи,6
состояние,6
экшен,6
видимости,5
вопросы,5
дерево,5
какую,5
кстати,5
массив,5
менять,5
мэп,5
написал,5
переменную,5
перерисовка,5
пишут,5
поводу,5
помню,5
привет,5
рассказать,5
реакте,5
редукс,5
стор,5
фильтр,5
библиотека,4
видно,4
виртуальный,4
вроде,4
говоришь,4
далее,4
джаваскрипт,4
достаточно,4
жизненного,4
занимаемся,4
изменить,4
используется,4
компонента,4
конкретные,4
конст,4
михаил,4
миша,4
мобикс,4
можешь,4
нашей,4
нужна,4
область,4
отличие,4
первое,4
переменная,4
писал,4
плюс,4
поговорить,4
работал,4
расскажешь,4
рассказал,4
редьюс,4
редюсер,4
рендеринг,4
реф,4
речь,4
связи,4
словах,4
смотри,4
стой,4
сути,4
такого,4
таня,4
узел,4
управлять,4
фаза,4
функцию,4
хостинг,4
хуках,4
целом,4
цикла,4
экспрешн,4
айти,3
аштеемельку,3
бизнеса,3
бла,3
блок,3
бывают,3
взаимно,3
виду,3
возможно,3
возможность,3
вок,3
глобальное,3
держать,3
думаю,3
задача,3
значения,3
изменение,3
изменился,3
ин,3
каким,3
любят,3
минимум,3
назвать,3
написали,3
напрямую,3
нарваться,3
нашего,3
некоторые,3
новое,3
обновления,3
объявили,3
объяснил,3
основное,3
позволяет,3
получается,3
поместить,3
приятно,3
программисты,3
проект,3
пропсы,3
простой,3
прям,3
реакта,3
редко,3
ситуацию,3
скорость,3
слышу,3
смотрит,3
собеседование,3
согласования,3
способ,3
спрашивают,3
стандарт,3
тема,3
услышал,3
фидбек,3
холиварная,3
хотела,3
хранить,3
хуки,3
чудесно,3
экран,3
элементов,3
ага,2
анализировать,2
аналитические,2
ангуляр,2
анонимные,2
аргументом,2
биг,2
бизнес,2
блин,2
большая,2
большей,2
большое,2
быстрее,2
веб,2
велд,2
вернуть,2
весит,2
ветку,2
вида,2
вложенная,2
вместо,2
внимательно,2
внутренний,2
возвращает,2
всплывать,2
вызвать,2
вырубилось,2
вычислений,2
вышестоящего,2
вью,2
говорю,2
говорят,2
грамотно,2
данных,2
дата,2
двойной,2
действий,2
декларейшн,2
демонтирования,2
дерева,2
деталях,2
джеквери,2
диспатч,2
добавить,2
домом,2
друга,2
другим,2
другому,2
едюсер,2
жизненным,2
жизни,2
заведомо,2
задачи,2
замыкание,2
занимается,2
запросы,2
зис,2
знаком,2
извини,2
изменении,2
изменяет,2
изменять,2
имеют,2
интересно,2
информацию,2
используют,2
используются,2
кабинет,2
какого,2
каком,2
касса,2
килобайта,2
класс,2
классах,2
классовый,2
клиентов,2
клиенты,2
кода,2
колбэк,2
количество,2
команда,2
компания,2
компаниях,2
конкретный,2
конс,2
консте,2
контекстом,2
короче,2
криэйтеры,2
курсе,2
листочке,2
логика,2
логично,2
лэт,2
любых,2
максимально,2
массива,2
маунд,2
медиа,2
мелкий,2
мемоизация,2
месте,2
милиона,2
минус,2
минусы,2
минут,2
минуты,2
мобекс,2
мобикса,2
модекс,2
моему,2
момент,2
монтирования,2
надежным,2
назвал,2
названия,2
называется,2
насколько,2
нашем,2
нашему,2
недели,2
немножечко,2
непонятно,2
нету,2
никакого,2
новом,2
обратно,2
объявления,2
одну,2
ок,2
операция,2
описал,2
оптимизацией,2
основная,2
основном,2
основных,2
особо,2
остается,2
ответ,2
отвечаешь,2
отличаются,2
ошибки,2
пару,2
пачку,2
пейдж,2
первых,2
перемену,2
переходить,2
пишем,2
пишу,2
плавно,2
плане,2
подразумеваю,2
подробно,2
подход,2
половину,2
получится,2
поля,2
помощи,2
понимаю,2
поскольку,2
поэтому,2
прав,2
практической,2
преимущество,2
приложение,2
пример,2
принимает,2
пробывал,2
продается,2
продуктов,2
проекта,2
прокидывать,2
прокинуть,2
простое,2
работает,2
работой,2
равно,2
рады,2
различные,2
различных,2
разных,2
разработки,2
рамках,2
рассказала,2
рассказывай,2
расшарил,2
реальной,2
редаксе,2
редюсеров,2
результат,2
рендер,2
рендере,2
ритейлерам,2
ритейлеров,2
ритейлеры,2
руками,2
сайд,2
самая,2
самовызывающаяся,2
самое,2
сделали,2
сео,2
сервер,2
сервису,2
синтаксис,2
ситуации,2
ситуация,2
скажем,2
скажи,2
сколпа,2
скрипт,2
скрипты,2
сложно,2
сложный,2
случае,2
слышно,2
смысле,2
собеседования,2
современные,2
современный,2
согласен,2
содержит,2
создаем,2
создать,2
состоянием,2
спрашивать,2
спрашиваю,2
спросишь,2
срезе,2
стараются,2
старым,2
стейта,2
степени,2
стрелочные,2
судя,2
счастливо,2
таких,2
товаров,2
торговли,2
торговых,2
точно,2
тра,2
удобно,2
фазы,2
фнс,2
фронтенд,2
хотят,2
хочу,2
хранилище,2
хукам,2
хуков,2
целый,2
цене,2
циклом,2
чеков,2
честно,2
чистая,2
читать,2
чувствую,2
чём,2
экшена,2
экшн,2
элементу,2
этап,2
эффект,2
a,1
cимвол,1
абсервера,1
авто,1
автомат,1
агентствам,1
адаптировался,1
айайф,1
аккумулятору,1
акцентируют,1
алгоритм,1
алгоритмов,1
алгоритмы,1
альтернативный,1
аналитический,1
аналитическом,1
английски,1
английским,1
английское,1
андефайнд,1
анонимная,1
анонимную,1
антифайн,1
апдейт,1
апи,1
аплекейшин,1
апликейшн,1
аргументс,1
аргументы,1
архитектурой,1
асин,1
асинклет,1
асинхронной,1
асинхронных,1
аштеемелька,1
аштиемельки,1
балдери,1
банда,1
банкам,1
банков,1
бац,1
бегать,1
берёт,1
бесконечно,1
бесплатная,1
бесплатный,1
библиотеке,1
библиотеки,1
библиотекой,1
библиотеку,1
бизнесом,1
ближе,1
блоги,1
блочную,1
боксов,1
боку,1
большие,1
бороться,1
браузер,1
браузере,1
будущем,1
бук,1
буквально,1
быстрый,1
быстрым,1
бэкенду,1
важна,1
важно,1
вакансию,1
валд,1
варину,1
варом,1
вебинтерфейс,1
великолепно,1
вернемся,1
вернул,1
вернусь,1
вероятности,1
верхам,1
верхней,1
верхнеуровневую,1
верхняя,1
ветка,1
веткой,1
вещах,1
вещи,1
видал,1
виде,1
видели,1
видео,1
виджет,1
видимо,1
видишь,1
видна,1
видоизмененную,1
видоизменяем,1
видоизменяет,1
вижу,1
виз,1
виртуальным,1
вложенной,1
вложенность,1
вложености,1
внешнего,1
внимание,1
внутренние,1
возвращают,1
ворк,1
воскриптом,1
впак,1
впечатления,1
всей,1
вскоре,1
всплывает,1
всплытие,1
вспомню,1
всякие,1
всяких,1
вторая,1
вторых,1
въехать,1
выбивает,1
выглядит,1
вызвали,1
вызове,1
вызывали,1
вызывать,1
вынуждены,1
выпадал,1
выполняется,1
выражение,1
выражении,1
выстраивали,1
выстрелить,1
вытащить,1
выходит,1
выходных,1
вышестоящий,1
вьюкс,1
генераторы,1
генерить,1
главного,1
глобально,1
глобальной,1
глобальную,1
глобальный,1
глядишь,1
голове,1
гонятся,1
грабли,1
дала,1
дам,1
двигаться,1
двум,1
дебагингом,1
дебажить,1
действие,1
делалось,1
делу,1
департамента,1
деструктуризация,1
десятки,1
десяток,1
джава,1
джаваскрипта,1
джаваскриптовыми,1
джеваскрипт,1
джеесовские,1
джейк,1
джейс,1
дживоскриптом,1
джиквери,1
дид,1
дизайнер,1
дикмаунт,1
дикори,1
динамически,1
динамическим,1
директором,1
диспатчей,1
дня,1
добавил,1
добавили,1
добавляют,1
добрый,1
доза,1
документооборот,1
долгих,1
долгос,1
долей,1
должна,1
дольше,1
допустим,1
достать,1
доступ,1
доступна,1
дочерняя,1
другого,1
другую,1
духе,1
единственный,1
емаил,1
ер,1
желание,1
желания,1
забаговать,1
зависимости,1
зависит,1
загруженой,1
задавай,1
задавал,1
задам,1
заданным,1
задать,1
задачах,1
задачей,1
задачка,1
задачки,1
задачу,1
задержаться,1
займёт,1
закидывать,1
закинуть,1
закончила,1
закончилась,1
закончились,1
замкнет,1
замкнуть,1
замыкать,1
занимаетесь,1
заниматься,1
заново,1
записать,1
запланировал,1
заполняют,1
заснуть,1
заставлять,1
затрагивать,1
затролить,1
звать,1
здравомыслящим,1
здравствуйте,1
зимние,1
знает,1
знакома,1
знакомо,1
знакомы,1
знакомьтесь,1
знаний,1
знания,1
знатоков,1
значениями,1
зум,1
идентифицируют,1
идет,1
идёт,1
избежать,1
известное,1
извините,1
изменений,1
изменению,1
изменения,1
изменил,1
изменилась,1
изменили,1
изменились,1
изменилось,1
изменится,1
изменяем,1
изначально,1
изрев,1
изучал,1
иконствами,1
икс,1
илюшка,1
имени,1
имею,1
имеющая,1
инструмент,1
интегрировалась,1
интервалов,1
интересное,1
интернете,1
интернетмагазине,1
интерфейс,1
интерфейса,1
интерфейсов,1
интл,1
информации,1
искать,1
исключением,1
исключительно,1
использовал,1
использованием,1
используем,1
используемые,1
использует,1
исходя,1
итерации,1
ищу,1
кабинетов,1
каждой,1
каждому,1
какому,1
калашникова,1
кампании,1
кандидат,1
кандидатов,1
капотом,1
каренд,1
касс,1
кассы,1
каунтером,1
качественно,1
каша,1
каширование,1
квери,1
кейс,1
кейса,1
кейсов,1
кейсы,1
кини,1
классики,1
классический,1
классическом,1
классная,1
классные,1
классный,1
классных,1
классового,1
классовом,1
классовым,1
классовых,1
классы,1
клиента,1
клиентами,1
ключевое,1
ключевой,1
ко,1
ковейд,1
коде,1
колбек,1
колбэком,1
коллбек,1
командой,1
комментарий,1
компани,1
компоненте,1
компоненту,1
компоненты,1
компонетапдэйт,1
конкретно,1
конкретных,1
консен,1
конста,1
констл,1
конструкции,1
контролировать,1
конференция,1
конфиг,1
конца,1
корневой,1
корректно,1
которое,1
котором,1
которую,1
которым,1
крайне,1
крайняя,1
красиво,1
красивые,1
красивый,1
красивых,1
кратко,1
крейд,1
крупных,1
крутая,1
крути,1
кусочки,1
куча,1
кучу,1
легаси,1
легкие,1
легковесный,1
легче,1
лень,1
летом,1
лидер,1
линк,1
листе,1
личный,1
личных,1
лишних,1
лк,1
лужники,1
любая,1
любим,1
любом,1
магазине,1
магазинов,1
магазинчика,1
максима,1
максиму,1
максимум,1
маленьких,1
манипулирует,1
манипуляций,1
маркировка,1
марок,1
массивы,1
медиат,1
мелких,1
мемай,1
мемозировать,1
менеджер,1
менялся,1
меняют,1
методы,1
метро,1
механизм,1
мидл,1
милионны,1
михаилу,1
миш,1
миши,1
мишина,1
многие,1
многих,1
мобиксом,1
мобильная,1
могла,1
модели,1
мойбиксе,1
молока,1
моменты,1
монорепозиторий,1
мутабельного,1
мысль,1
наблюдателя,1
набору,1
наверно,1
наверх,1
надеюсь,1
название,1
назывался,1
накапливает,1
накладывает,1
накст,1
накста,1
наладил,1
нанимают,1
наоборот,1
написания,1
написаны,1
направлена,1
направлением,1
направления,1
наслаждаться,1
наследование,1
наследовать,1
начал,1
начали,1
началу,1
начнем,1
начну,1
начнём,1
нашим,1
нашими,1
наших,1
нашёл,1
небольшого,1
недостатках,1
недостаток,1
некоторому,1
некст,1
некста,1
необходимо,1
неполучилось,1
непонятные,1
непонятных,1
нетрадиционный,1
неудобно,1
новогодних,1
новости,1
новостях,1
новые,1
новым,1
ногу,1
нода,1
нормально,1
нравится,1
нравишься,1
нубикс,1
нужном,1
нюансы,1
нём,1
обернув,1
обернутая,1
обладает,1
области,1
областях,1
обновлять,1
оборачиваем,1
обрабатываем,1
обрабатывает,1
обращения,1
обсуждать,1
обход,1
общей,1
общения,1
общих,1
объединение,1
объектами,1
объекты,1
объявить,1
объявленные,1
объявлено,1
объявляем,1
объяснял,1
обязательно,1
ограничение,1
огромное,1
одна,1
однозначно,1
однотипных,1
ожидал,1
окей,1
онлайн,1
онлайнкасс,1
ооо,1
ооп,1
операции,1
операций,1
определению,1
определенная,1
определяться,1
оптимизацию,1
оптимизация,1
оптимизировано,1
оптимизирующих,1
опыт,1
организовать,1
основа,1
основной,1
оставалась,1
остался,1
остальным,1
остановился,1
остаёмся,1
ответил,1
отвлекся,1
отдавать,1
отдел,1
отен,1
отказаться,1
отключусь,1
отладить,1
отладке,1
отлаживаемый,1
отличия,1
отлично,1
относительно,1
отправляет,1
отправляют,1
отработал,1
отследить,1
оттуда,1
отфильтровывает,1
отчет,1
отчетности,1
оферу,1
очевидное,1
очевидный,1
очередь,1
ошибка,1
ошибку,1
пайлок,1
паралельно,1
парам,1
парень,1
партнеры,1
паттерн,1
первую,1
перевода,1
передаем,1
переизмены,1
переиспользовать,1
переменные,1
переменными,1
переменые,1
перерисовалось,1
перерисовки,1
перерисовку,1
перерисовок,1
перерисовывает,1
переруливаем,1
перестали,1
пересчитывать,1
переходим,1
писали,1
пишешь,1
плавнинько,1
планы,1
платным,1
плохие,1
плохо,1
плюсик,1
побольше,1
поведения,1
повторюсь,1
повторяться,1
погоди,1
подбежит,1
подбираю,1
подгружать,1
подебажил,1
подключать,1
подключают,1
подключаются,1
подключена,1
подключено,1
подлавливать,1
подобное,1
подожди,1
подразумеваешь,1
подредюсеров,1
подробнее,1
подсказываешь,1
подсчет,1
подумал,1
подумаю,1
позволишь,1
позитивный,1
поинтереснее,1
показал,1
покупал,1
покупать,1
полгода,1
поле,1
полезная,1
полезный,1
полностью,1
положим,1
поменять,1
помещаем,1
помнишь,1
помогать,1
понадобиться,1
понимании,1
понравилось,1
понравился,1
понятия,1
понятное,1
понятный,1
пообщаться,1
попадешь,1
пописать,1
поподробнее,1
поподробней,1
попробую,1
попроще,1
популярные,1
порядка,1
порядке,1
последовательно,1
посложнее,1
поспросить,1
постепенно,1
потерял,1
потоки,1
потратили,1
потяжелее,1
похож,1
пошёл,1
правильного,1
правильный,1
практике,1
практическом,1
превратились,1
предварительно,1
предвычисленное,1
предлагаем,1
предназначена,1
предсказуемые,1
представить,1
представляю,1
представляют,1
предусматри,1
предусматривал,1
преимущества,1
преобразовать,1
преподаватель,1
приведёт,1
приветствую,1
привлечь,1
привёл,1
приложении,1
применяется,1
применять,1
примеру,1
принимаем,1
принимать,1
присмотрюсь,1
присылают,1
приходили,1
приходится,1
прицельно,1
причем,1
причина,1
пришли,1
приятный,1
пробежаться,1
проблем,1
проблема,1
проблему,1
проблемы,1
пробсдрининга,1
пробсов,1
провайдер,1
проведёт,1
программе,1
программировании,1
программирования,1
программиста,1
продавать,1
продает,1
продаже,1
продздрилинга,1
продлится,1
продукты,1
произносить,1
произошло,1
происходят,1
прокидываем,1
прокидывает,1
прокинули,1
промежуток,1
проместить,1
промиси,1
промышленном,1
пропадала,1
пропаду,1
пропустить,1
прорабатывал,1
просов,1
простенько,1
простенькое,1
прости,1
простому,1
простым,1
простых,1
проходил,1
проходит,1
процесс,1
процесса,1
прочее,1
прочитал,1
прощаемся,1
проще,1
прояснять,1
прямо,1
прямом,1
прямых,1
путаница,1
путём,1
пытаюсь,1
пэха,1
радостью,1
разбиваем,1
развитием,1
разговаривать,1
разделить,1
раздувается,1
различие,1
разница,1
разный,1
разрабатывался,1
разработать,1
разработке,1
разработкой,1
разработку,1
разработчика,1
разработчики,1
разработчиков,1
разумеется,1
разумно,1
разъяснить,1
разы,1
расскажещь,1
расскажу,1
рассказали,1
рассказам,1
рассказываем,1
рассказываешь,1
рассказывать,1
расшарит,1
реакту,1
реализует,1
редакc,1
редакса,1
редакции,1
редис,1
редкие,1
редуксом,1
редуксу,1
редюсере,1
результатов,1
резюме,1
рекдексе,1
рекламные,1
рекламным,1
реконстилешн,1
рекрутер,1
рекурсию,1
рендеринга,1
рест,1
ретейлер,1
ретейлеров,1
решает,1
решение,1
решения,1
рисует,1
роботы,1
рудиция,1
руки,1
руководством,1
рулем,1
рынком,1
сайтов,1
свете,1
своими,1
связанных,1
связь,1
сделаем,1
сделал,1
сделалаю,1
сегодняшний,1
семиста,1
сенс,1
серверный,1
серверу,1
сервис,1
сервисе,1
сервисы,1
серьезно,1
сет,1
сетей,1
символ,1
синтаксисом,1
скажу,1
скобки,1
скобочке,1
сконцентрироваться,1
скоп,1
скоуб,1
слабо,1
следовать,1
следующей,1
следуя,1
слимп,1
словарь,1
сложнее,1
сложней,1
сложное,1
сложном,1
сложности,1
сложные,1
сломанная,1
случайно,1
случаях,1
случилось,1
слушаешь,1
слушай,1
слушал,1
слушаю,1
слышать,1
слышим,1
слышите,1
слышишь,1
смогу,1
сможете,1
смотрю,1
смотря,1
смотрят,1
смысл,1
собеседований,1
собранный,1
соврала,1
сожалению,1
сообразишь,1
сорокаминутное,1
сосредоточиться,1
составляющей,1
состоит,1
сохранение,1
сохраняем,1
сочетание,1
спецификой,1
спокойно,1
способа,1
способов,1
способом,1
способы,1
справляемся,1
спред,1
спросил,1
сравнение,1
сравнивает,1
сравнить,1
сре,1
средней,1
среднем,1
срезах,1
ссылку,1
становится,1
старом,1
старому,1
старых,1
стей,1
стейд,1
сторы,1
стране,1
странички,1
страшно,1
страшной,1
стрелочная,1
стрелочной,1
строится,1
субъективно,1
сумасшедшая,1
супер,1
сформировать,1
сходу,1
счетчик,1
считаю,1
считают,1
счётчик,1
счётчики,1
таймаутов,1
таком,1
таней,1
тарам,1
тащить,1
тб,1
твоим,1
твоих,1
тд,1
текущая,1
тела,1
тему,1
теоретические,1
теоретических,1
теории,1
термином,1
тестовый,1
технической,1
технологии,1
технологиях,1
тимлид,1
тип,1
типичных,1
типом,1
типу,1
толковый,1
точнее,1
тп,1
традиционно,1
тратить,1
третьей,1
третья,1
тройной,1
тру,1
тутже,1
тяжеловесная,1
тяжеловесных,1
тяжелые,1
тяжелый,1
увеличиваться,1
увеличились,1
уверен,1
уверены,1
увидит,1
углубиться,1
удобнее,1
удобный,1
узлами,1
умно,1
умное,1
умных,1
упомянул,1
управления,1
уровня,1
усвоил,1
условию,1
устаревшие,1
устоявшийся,1
утренних,1
уходят,1
учился,1
фаз,1
фазами,1
фазу,1
фанкшин,1
фанкшн,1
фаншен,1
фишка,1
флаг,1
флакс,1
форсированный,1
фреймворк,1
фреймворки,1
фрондент,1
фронта,1
фронтендеры,1
фротенд,1
функционального,1
функциональности,1
функциональность,1
функциональную,1
функциональных,1
функциями,1
функщин,1
функщинл,1
хадкорные,1
хардкорные,1
хозяйства,1
холиварят,1
хостинга,1
хостинги,1
хотел,1
хотим,1
хочется,1
хранилища,1
храним,1
хранит,1
хранится,1
ценам,1
циклическая,1
части,1
чек,1
чеке,1
чеки,1
человека,1
чертах,1
четвёртое,1
чё,1
чёрт,1
чёт,1
шапки,1
шрифт,1
штука,1
штуки,1
шутка,1
шуткомпонента,1
э,1
эй,1
эйчар,1
экспрессон,1
экшенам,1
экшенах,1
экшенов,1
электронный,1
элемент,1
элементам,1
элементами,1
элементы,1
энджерикс,1
энное,1
этапы,1
эфире,1
эффекте,1
эффектор,1
юзмема,1
юзреф,1
юикс,1
юс,1
юскалбэк,1
явно,1
явного,1
язык,1
